{
  "project_info": {
    "project_number": "1036183543150",
    "firebase_url": "https://mytestapp-c6932.firebaseio.com",
    "project_id": "mytestapp-c6932",
    "storage_bucket": "mytestapp-c6932.appspot.com"
  },
  "client": [
    {
      "client_info": {
        "mobilesdk_app_id": "1:1036183543150:android:59d37e84b22f2acd",
        "android_client_info": {
          "package_name": "com.accenture.adrian.m.tabay.hcexam"
        }
      },
      "oauth_client": [
        {
          "client_id": "1036183543150-0fiit0j0r8bq8l713nufd1brpte4rl4s.apps.googleusercontent.com",
          "client_type": 3
        }
      ],
      "api_key": [
        {
          "current_key": "AIzaSyDFl0o1RBT7v3gTtv9MW5bA3ZLlmfPeXyE"
        }
      ],
      "services": {
        "analytics_service": {
          "status": 1
        },
        "appinvite_service": {
          "status": 1,
          "other_platform_oauth_client": []
        },
        "ads_service": {
          "status": 2
        }
      }
    },
    {
      "client_info": {
        "mobilesdk_app_id": "1:1036183543150:android:f09b248fe99fcbe6",
        "android_client_info": {
          "package_name": "com.my.test.app"
        }
      },
      "oauth_client": [
        {
          "client_id": "1036183543150-0fiit0j0r8bq8l713nufd1brpte4rl4s.apps.googleusercontent.com",
          "client_type": 3
        }
      ],
      "api_key": [
        {
          "current_key": "AIzaSyDFl0o1RBT7v3gTtv9MW5bA3ZLlmfPeXyE"
        }
      ],
      "services": {
        "analytics_service": {
          "status": 1
        },
        "appinvite_service": {
          "status": 1,
          "other_platform_oauth_client": []
        },
        "ads_service": {
          "status": 2
        }
      }
    }
  ],
  "configuration_version": "1"
}